{
    "objectTypes": [
        {
            "type": "airports"
        },
        {
            "type": "hotelChains"
        },
        {
            "type": "hotelTypes",
            "children": [
                {
                    "type": "EDF"
                },
                {
                    "type": "INF"
                },
                {
                    "type": "OTDS"
                }
            ]
        },
        {
            "type": "mealTypes",
            "children": [
                {
                    "type": "EDF"
                },
                {
                    "type": "INF"
                },
                {
                    "type": "OTDS"
                }
            ]
        },
        {
            "type": "roomTypes",
            "children": [
                {
                    "type": "EDF"
                },
                {
                    "type": "INF"
                },
                {
                    "type": "OTDS"
                }
            ]
        },
        {
            "type": "supplier"
        },
        {
            "type": "dataFormat"
        }
    ]
}